<svg xmlns="http://www.w3.org/2000/svg" width="13" height="25" viewBox="0 0 13 25">
  <text id="x" transform="translate(0 21)" fill="#d94343" font-size="22" font-family="Gotham-Black, Gotham" font-weight="800" letter-spacing="0.01em"><tspan x="0" y="0">x</tspan></text>
</svg>
